{
	"pageSize":10,
   "currentPage":1,
   "totalSize":101,
   "totalPage":11,
	"search":{"use":"use","opt":"userlist"},
	"data":[
{"userName":"user1","userPwd":"123456","phone":"123456789011","email":"seasovl@gmail.com","status":0},
{"userName":"user2","userPwd":"123456","phone":"123456789011","email":"seasovl@gmail.com","status":0},
{"userName":"user3","userPwd":"123456","phone":"123456789011","email":"seasovl@gmail.com","status":0},
{"userName":"user4","userPwd":"123456","phone":"123456789011","email":"seasovl@gmail.com","status":0},
{"userName":"user5","userPwd":"123456","phone":"123456789011","email":"seasovl@gmail.com","status":0},
{"userName":"user6","userPwd":"123456","phone":"123456789011","email":"seasovl@gmail.com","status":0},
{"userName":"user7","userPwd":"123456","phone":"123456789011","email":"seasovl@gmail.com","status":0},
{"userName":"user8","userPwd":"123456","phone":"123456789011","email":"seasovl@gmail.com","status":0},
{"userName":"user9","userPwd":"123456","phone":"123456789011","email":"seasovl@gmail.com","status":0},
{"userName":"user10","userPwd":"123456","phone":"123456789011","email":"seasovl@gmail.com","status":0},
{"userName":"user11","userPwd":"123456","phone":"123456789011","email":"seasovl@gmail.com","status":0},
{"userName":"user12","userPwd":"123456","phone":"123456789011","email":"seasovl@gmail.com","status":0},
{"userName":"user13","userPwd":"123456","phone":"123456789011","email":"seasovl@gmail.com","status":0},
{"userName":"user14","userPwd":"123456","phone":"123456789011","email":"seasovl@gmail.com","status":0},
{"userName":"user15","userPwd":"123456","phone":"123456789011","email":"seasovl@gmail.com","status":0},
{"userName":"user16","userPwd":"123456","phone":"123456789011","email":"seasovl@gmail.com","status":0},
{"userName":"user17","userPwd":"123456","phone":"123456789011","email":"seasovl@gmail.com","status":0},
{"userName":"user18","userPwd":"123456","phone":"123456789011","email":"seasovl@gmail.com","status":0},
{"userName":"user19","userPwd":"123456","phone":"123456789011","email":"seasovl@gmail.com","status":0},
{"userName":"user20","userPwd":"123456","phone":"123456789011","email":"seasovl@gmail.com","status":0},
{"userName":"user21","userPwd":"123456","phone":"123456789011","email":"seasovl@gmail.com","status":0},
{"userName":"user22","userPwd":"123456","phone":"123456789011","email":"seasovl@gmail.com","status":0},
{"userName":"user23","userPwd":"123456","phone":"123456789011","email":"seasovl@gmail.com","status":0},
{"userName":"user24","userPwd":"123456","phone":"123456789011","email":"seasovl@gmail.com","status":0},
{"userName":"user25","userPwd":"123456","phone":"123456789011","email":"seasovl@gmail.com","status":0},
{"userName":"user26","userPwd":"123456","phone":"123456789011","email":"seasovl@gmail.com","status":0},
{"userName":"user27","userPwd":"123456","phone":"123456789011","email":"seasovl@gmail.com","status":0},
{"userName":"user28","userPwd":"123456","phone":"123456789011","email":"seasovl@gmail.com","status":0},
{"userName":"user29","userPwd":"123456","phone":"123456789011","email":"seasovl@gmail.com","status":0},
{"userName":"user30","userPwd":"123456","phone":"123456789011","email":"seasovl@gmail.com","status":0},
{"userName":"user31","userPwd":"123456","phone":"123456789011","email":"seasovl@gmail.com","status":0},
{"userName":"user32","userPwd":"123456","phone":"123456789011","email":"seasovl@gmail.com","status":0},
{"userName":"user33","userPwd":"123456","phone":"123456789011","email":"seasovl@gmail.com","status":0},
{"userName":"user34","userPwd":"123456","phone":"123456789011","email":"seasovl@gmail.com","status":0},
{"userName":"user35","userPwd":"123456","phone":"123456789011","email":"seasovl@gmail.com","status":0},
{"userName":"user36","userPwd":"123456","phone":"123456789011","email":"seasovl@gmail.com","status":0},
{"userName":"user37","userPwd":"123456","phone":"123456789011","email":"seasovl@gmail.com","status":0},
{"userName":"user38","userPwd":"123456","phone":"123456789011","email":"seasovl@gmail.com","status":0},
{"userName":"user39","userPwd":"123456","phone":"123456789011","email":"seasovl@gmail.com","status":0},
{"userName":"user40","userPwd":"123456","phone":"123456789011","email":"seasovl@gmail.com","status":0},
{"userName":"user41","userPwd":"123456","phone":"123456789011","email":"seasovl@gmail.com","status":0},
{"userName":"user42","userPwd":"123456","phone":"123456789011","email":"seasovl@gmail.com","status":0},
{"userName":"user43","userPwd":"123456","phone":"123456789011","email":"seasovl@gmail.com","status":0},
{"userName":"user44","userPwd":"123456","phone":"123456789011","email":"seasovl@gmail.com","status":0},
{"userName":"user45","userPwd":"123456","phone":"123456789011","email":"seasovl@gmail.com","status":0},
{"userName":"user46","userPwd":"123456","phone":"123456789011","email":"seasovl@gmail.com","status":0},
{"userName":"user47","userPwd":"123456","phone":"123456789011","email":"seasovl@gmail.com","status":0},
{"userName":"user48","userPwd":"123456","phone":"123456789011","email":"seasovl@gmail.com","status":0},
{"userName":"user49","userPwd":"123456","phone":"123456789011","email":"seasovl@gmail.com","status":0},
{"userName":"user50","userPwd":"123456","phone":"123456789011","email":"seasovl@gmail.com","status":0},
{"userName":"user51","userPwd":"123456","phone":"123456789011","email":"seasovl@gmail.com","status":0},
{"userName":"user52","userPwd":"123456","phone":"123456789011","email":"seasovl@gmail.com","status":0},
{"userName":"user53","userPwd":"123456","phone":"123456789011","email":"seasovl@gmail.com","status":0},
{"userName":"user54","userPwd":"123456","phone":"123456789011","email":"seasovl@gmail.com","status":0},
{"userName":"user55","userPwd":"123456","phone":"123456789011","email":"seasovl@gmail.com","status":0},
{"userName":"user56","userPwd":"123456","phone":"123456789011","email":"seasovl@gmail.com","status":0},
{"userName":"user57","userPwd":"123456","phone":"123456789011","email":"seasovl@gmail.com","status":0},
{"userName":"user58","userPwd":"123456","phone":"123456789011","email":"seasovl@gmail.com","status":0},
{"userName":"user59","userPwd":"123456","phone":"123456789011","email":"seasovl@gmail.com","status":0},
{"userName":"user60","userPwd":"123456","phone":"123456789011","email":"seasovl@gmail.com","status":0},
{"userName":"user61","userPwd":"123456","phone":"123456789011","email":"seasovl@gmail.com","status":0},
{"userName":"user62","userPwd":"123456","phone":"123456789011","email":"seasovl@gmail.com","status":0},
{"userName":"user63","userPwd":"123456","phone":"123456789011","email":"seasovl@gmail.com","status":0},
{"userName":"user64","userPwd":"123456","phone":"123456789011","email":"seasovl@gmail.com","status":0},
{"userName":"user65","userPwd":"123456","phone":"123456789011","email":"seasovl@gmail.com","status":0},
{"userName":"user66","userPwd":"123456","phone":"123456789011","email":"seasovl@gmail.com","status":0},
{"userName":"user67","userPwd":"123456","phone":"123456789011","email":"seasovl@gmail.com","status":0},
{"userName":"user68","userPwd":"123456","phone":"123456789011","email":"seasovl@gmail.com","status":0},
{"userName":"user69","userPwd":"123456","phone":"123456789011","email":"seasovl@gmail.com","status":0},
{"userName":"user70","userPwd":"123456","phone":"123456789011","email":"seasovl@gmail.com","status":0},
{"userName":"user71","userPwd":"123456","phone":"123456789011","email":"seasovl@gmail.com","status":0},
{"userName":"user72","userPwd":"123456","phone":"123456789011","email":"seasovl@gmail.com","status":0},
{"userName":"user73","userPwd":"123456","phone":"123456789011","email":"seasovl@gmail.com","status":0},
{"userName":"user74","userPwd":"123456","phone":"123456789011","email":"seasovl@gmail.com","status":0},
{"userName":"user75","userPwd":"123456","phone":"123456789011","email":"seasovl@gmail.com","status":0},
{"userName":"user76","userPwd":"123456","phone":"123456789011","email":"seasovl@gmail.com","status":0},
{"userName":"user77","userPwd":"123456","phone":"123456789011","email":"seasovl@gmail.com","status":0},
{"userName":"user78","userPwd":"123456","phone":"123456789011","email":"seasovl@gmail.com","status":0},
{"userName":"user79","userPwd":"123456","phone":"123456789011","email":"seasovl@gmail.com","status":0},
{"userName":"user80","userPwd":"123456","phone":"123456789011","email":"seasovl@gmail.com","status":0},
{"userName":"user81","userPwd":"123456","phone":"123456789011","email":"seasovl@gmail.com","status":0},
{"userName":"user82","userPwd":"123456","phone":"123456789011","email":"seasovl@gmail.com","status":0},
{"userName":"user83","userPwd":"123456","phone":"123456789011","email":"seasovl@gmail.com","status":0},
{"userName":"user84","userPwd":"123456","phone":"123456789011","email":"seasovl@gmail.com","status":0},
{"userName":"user85","userPwd":"123456","phone":"123456789011","email":"seasovl@gmail.com","status":0},
{"userName":"user86","userPwd":"123456","phone":"123456789011","email":"seasovl@gmail.com","status":0},
{"userName":"user87","userPwd":"123456","phone":"123456789011","email":"seasovl@gmail.com","status":0},
{"userName":"user88","userPwd":"123456","phone":"123456789011","email":"seasovl@gmail.com","status":0},
{"userName":"user89","userPwd":"123456","phone":"123456789011","email":"seasovl@gmail.com","status":0},
{"userName":"user90","userPwd":"123456","phone":"123456789011","email":"seasovl@gmail.com","status":0},
{"userName":"user91","userPwd":"123456","phone":"123456789011","email":"seasovl@gmail.com","status":0},
{"userName":"user92","userPwd":"123456","phone":"123456789011","email":"seasovl@gmail.com","status":0},
{"userName":"user93","userPwd":"123456","phone":"123456789011","email":"seasovl@gmail.com","status":0},
{"userName":"user94","userPwd":"123456","phone":"123456789011","email":"seasovl@gmail.com","status":0},
{"userName":"user95","userPwd":"123456","phone":"123456789011","email":"seasovl@gmail.com","status":0},
{"userName":"user96","userPwd":"123456","phone":"123456789011","email":"seasovl@gmail.com","status":0},
{"userName":"user97","userPwd":"123456","phone":"123456789011","email":"seasovl@gmail.com","status":0},
{"userName":"user98","userPwd":"123456","phone":"123456789011","email":"seasovl@gmail.com","status":0},
{"userName":"user99","userPwd":"123456","phone":"123456789011","email":"seasovl@gmail.com","status":0},
{"userName":"user100","userPwd":"123456","phone":"123456789011","email":"seasovl@gmail.com","status":0}

	]
}